Testing testAVL
4
5
10
20
30
The maximum value is 30
The minimum value is 4
The test for whether testAVL contains 10 returns 1
The test for whether testAVL contains 18 returns 0
Testing testAVL2 after removing 20
4
5
10
30
The test for whether testAVL2 contains 20 returns 0
